{
  "comm" : {
    "_channelid" : "208",
    "_os_version" : "6.2.9200-2",
    "authst" : "",
    "ct" : "19",
    "cv" : "2000",
    "guid" : "%GUID%",
    "patch" : "118",
    "psrf_access_token_expiresAt" : 0,
    "psrf_qqaccess_token" : "",
    "psrf_qqopenid" : "",
    "psrf_qqunionid" : "",
    "tmeAppID" : "qqmusic",
    "tmeLoginType" : 2,
    "uin" : "0",
    "wid" : "%WID%"
  },
  "platform.uniteUpdate.UniteUpdateSvr.QueryUpdate" : {
    "method" : "QueryUpdate",
    "module" : "platform.uniteUpdate.UniteUpdateSvr",
    "param" : {
      "chid" : "1001",
      "osVer" : 1
    }
  }
}